<?xml version="1.0" encoding="UTF-8" standalone="no"?>
<svg width="16px" height="16px" viewBox="0 0 16 16" version="1.1" xmlns="http://www.w3.org/2000/svg" xmlns:xlink="http://www.w3.org/1999/xlink">
    <!-- Generator: Sketch 3.7 (28169) - http://www.bohemiancoding.com/sketch -->
    <title>attencion</title>
    <desc>Created with Sketch.</desc>
    <defs></defs>
    <g id="Page-1" stroke="none" stroke-width="1" fill="none" fill-rule="evenodd">
        <g id="Протокол-матча-1440-+-состав" transform="translate(-330.000000, -2342.000000)" stroke="#315EFB" stroke-width="2">
            <g id="Group-4" transform="translate(269.000000, 1741.000000)">
                <g id="attencion" transform="translate(62.000000, 602.000000)">
                    <path d="M14,7 C14,10.866 10.866,14 7,14 C3.134,14 0,10.866 0,7 C0,3.134 3.134,0 7,0 C10.866,0 14,3.134 14,7 L14,7 Z" id="Stroke-1"></path>
                    <path d="M7,8 L7,3" id="Stroke-3"></path>
                    <path d="M7,11 L7,9" id="Stroke-5"></path>
                </g>
            </g>
        </g>
    </g>
</svg>