<?xml version="1.0" encoding="UTF-8" standalone="no"?>
<svg width="13px" height="16px" viewBox="0 0 13 16" version="1.1" xmlns="http://www.w3.org/2000/svg" xmlns:xlink="http://www.w3.org/1999/xlink">
    <!-- Generator: Sketch 3.7.2 (28276) - http://www.bohemiancoding.com/sketch -->
    <title>Shape</title>
    <desc>Created with Sketch.</desc>
    <defs></defs>
    <g id="Page-1">
        <g id="main-4" transform="translate(-1196.000000, -311.000000)">
            <g id="Group-6" transform="translate(1020.000000, 161.000000)">
                <g id="Group-15" transform="translate(38.000000, 150.000000)">
                    <g id="Group-5">
                        <g id="Group-19">
                            <path d="M149.916667,8.82985843 C149.916667,10.1148005 149.645833,11.0785071 149.158333,11.8280566 C147.966667,13.4877735 145.8,14.5585586 144.5,14.9333333 C143.2,14.5585586 141.033333,13.4877735 139.841667,11.8280566 C139.354167,11.0785071 139.083333,10.1148005 139.083333,8.82985843 L139.083333,1.06666667 L149.916667,1.06666667 L149.916667,8.82985843 L149.916667,8.82985843 Z M138,0 L138,8.8 C138,10.2933333 138.325,11.4666667 138.975,12.3733333 C140.329167,14.3466667 142.929167,15.6266667 144.5,16 C146.070833,15.6266667 148.670833,14.3466667 150.025,12.3733333 C150.675,11.4666667 151,10.2933333 151,8.8 L151,0 L138,0 L138,0 Z M145.041667,5.79688474 C145.041667,6.16323988 144.879167,6.32024922 144.5,6.32024922 L143.958333,6.32024922 C143.579167,6.32024922 143.416667,6.16323988 143.416667,5.79688474 L143.416667,2.13333333 L140.166667,2.13333333 L140.166667,6.32024922 C140.166667,7.10529595 140.275,7.73333333 140.708333,8.15202492 C141.141667,8.57071651 141.629167,8.67538941 142.604167,8.67538941 L144.066667,8.67538941 C144.445833,8.67538941 144.879167,8.62305296 145.041667,8.46604361 L145.041667,13.3333333 C146.179167,12.8623053 147.533333,12.0249221 148.291667,10.9781931 C148.670833,10.4548287 148.833333,9.72211838 148.833333,8.67538941 L148.833333,2.13333333 L145.041667,2.13333333 L145.041667,5.79688474 L145.041667,5.79688474 Z M141.9,9.78634538 C141.195833,9.78634538 140.491667,9.58072289 140.166667,9.06666667 C140.220833,9.94056225 140.383333,10.5574297 140.708333,11.0200803 C141.466667,12.0481928 142.820833,12.8706827 143.958333,13.3333333 L143.958333,9.78634538 L141.9,9.78634538 L141.9,9.78634538 Z" id="Shape"></path>
                        </g>
                    </g>
                </g>
            </g>
        </g>
    </g>
</svg>