<?xml version="1.0" encoding="UTF-8" standalone="no"?>
<svg width="171px" height="25px" viewBox="0 0 171 25" version="1.1" xmlns="http://www.w3.org/2000/svg" xmlns:xlink="http://www.w3.org/1999/xlink">
    <!-- Generator: Sketch 3.7.2 (28276) - http://www.bohemiancoding.com/sketch -->
    <title>Group 6</title>
    <desc>Created with Sketch.</desc>
    <defs></defs>
    <g id="Rambler-Projects">
        <g id="r-logo" transform="translate(-590.000000, -723.000000)">
            <g id="Group-6" transform="translate(590.000000, 723.000000)">
                <g id="Znakomstva-Copy-3">
                    <g id="Group">
                        <path d="M74.1935484,11.1290323 C74.2741935,10.2419355 75.1612903,8.5483871 77.2580645,8.5483871 C79.5967742,8.5483871 80,10.4032258 80.0806452,11.1290323 L74.1935484,11.1290323 L74.1935484,11.1290323 Z M77.3387097,5.96774194 C73.3870968,5.96774194 70.7258065,8.87096774 70.7258065,12.5806452 C70.7258065,16.2903226 73.3870968,19.1935484 77.4193548,19.1935484 C81.4516129,19.1935484 83.1451613,16.3709677 83.1451613,16.3709677 L80.5645161,14.6774194 C80.5645161,14.6774194 79.6774194,16.4516129 77.4193548,16.4516129 C75.0806452,16.4516129 74.1129032,14.4354839 74.1129032,13.7096774 L83.3870968,13.7096774 C83.3870968,13.7096774 83.4677419,13.1451613 83.4677419,12.983871 L83.4677419,12.5806452 C83.4677419,8.79032258 81.2096774,5.96774194 77.3387097,5.96774194 L77.3387097,5.96774194 Z" id="Shape"></path>
                        <path d="M95.8870968,12.5 C95.8870968,14.5967742 94.6774194,16.3709677 92.3387097,16.3709677 C90,16.3709677 88.7096774,14.4354839 88.7096774,12.5 C88.7096774,10.5645161 90,8.62903226 92.3387097,8.62903226 C94.5967742,8.70967742 95.8870968,10.4032258 95.8870968,12.5 M92.7419355,5.96774194 C90.483871,5.96774194 89.1935484,7.17741935 88.7903226,7.66129032 L88.7903226,6.29032258 L85.4032258,6.29032258 L85.4032258,24.9193548 L88.8709677,24.9193548 L88.8709677,17.6612903 C89.2741935,18.0645161 90.6451613,19.1935484 92.7419355,19.1935484 C95.9677419,19.1935484 98.9516129,16.7741935 98.9516129,12.5806452 C99.0322581,8.14516129 95.7258065,5.96774194 92.7419355,5.96774194" id="Shape"></path>
                        <path d="M21.0483871,13.6290323 C21.0483871,15.3225806 20.0806452,16.5322581 18.2258065,16.5322581 C16.4516129,16.5322581 16.2903226,15.483871 16.2903226,15.0806452 C16.2903226,14.1129032 17.0967742,13.5483871 19.1129032,13.3064516 C19.6774194,13.2258065 20.2419355,13.2258065 20.8064516,13.2258065 L21.0483871,13.2258065 L21.0483871,13.6290323 L21.0483871,13.6290323 Z M24.2741935,16.0483871 L24.2741935,12.2580645 L24.2741935,11.5322581 C24.1129032,7.58064516 22.4193548,5.96774194 18.8709677,5.96774194 C16.4516129,5.96774194 14.8387097,6.93548387 14.2741935,7.33870968 L15.2419355,9.91935484 C15.2419355,9.91935484 16.6935484,8.62903226 18.5483871,8.62903226 C21.2096774,8.62903226 20.8870968,10.8064516 20.8870968,10.8064516 C20,10.8064516 12.8225806,10.4032258 12.8225806,15.0806452 C12.8225806,17.6612903 15,19.1129032 17.3387097,19.1129032 C19.4354839,19.1129032 20.6451613,18.0645161 20.9677419,17.6612903 C20.9677419,17.7419355 21.0483871,18.8709677 21.0483871,18.8709677 L24.2741935,18.8709677 C24.4354839,18.8709677 24.2741935,17.7419355 24.2741935,16.0483871 L24.2741935,16.0483871 Z" id="Shape"></path>
                        <polygon id="Shape" points="34.5967742 11.5322581 30.2419355 6.37096774 30.1612903 6.20967742 27.1774194 6.20967742 27.1774194 18.8709677 30.6451613 18.8709677 30.6451613 11.5322581 34.0322581 15.8064516 34.1129032 15.8870968 35 15.8870968 38.4677419 11.4516129 38.4677419 18.8709677 41.9354839 18.8709677 41.9354839 6.20967742 38.9516129 6.20967742"></polygon>
                        <polygon id="Shape" points="109.516129 0.64516129 100.645161 24.8387097 104.274194 24.8387097 113.145161 0.64516129"></polygon>
                        <path d="M8.87096774,6.61290323 C8.87096774,8.70967742 6.85483871,9.43548387 5.48387097,9.43548387 L3.70967742,9.43548387 L3.70967742,3.70967742 L5.48387097,3.70967742 C6.85483871,3.70967742 8.87096774,4.51612903 8.87096774,6.61290323 M5.80645161,0.64516129 L0.161290323,0.64516129 L0.161290323,18.8709677 L3.79032258,18.8709677 L3.79032258,12.4193548 L5.72580645,12.4193548 C9.43548387,12.4193548 12.5,10.483871 12.5,6.53225806 C12.5,2.66129032 9.43548387,0.64516129 5.80645161,0.64516129" id="Shape"></path>
                        <path d="M53.9516129,12.8225806 C53.9516129,14.2741935 53.1451613,16.3709677 50.8064516,16.3709677 C48.4677419,16.3709677 47.5,14.516129 47.5,12.7419355 C47.5,10.9677419 48.4677419,9.35483871 50.8064516,9.35483871 C53.1451613,9.35483871 53.9516129,11.3709677 53.9516129,12.8225806 M51.1290323,6.20967742 C49.4354839,6.20967742 48.2258065,7.01612903 47.9032258,7.25806452 C47.983871,6.85483871 48.3870968,3.46774194 52.9032258,3.46774194 L55.7258065,3.46774194 L56.7741935,0.64516129 L52.983871,0.64516129 C47.983871,0.64516129 44.1129032,2.98387097 44.1129032,11.1290323 C44.1129032,15.5645161 46.0483871,19.1935484 50.7258065,19.1935484 C55.1612903,19.1935484 57.4193548,15.9677419 57.4193548,12.7419355 C57.4193548,8.14516129 53.9516129,6.20967742 51.1290323,6.20967742" id="Shape"></path>
                        <polygon id="Shape" points="66.7741935 18.8709677 70.483871 18.8709677 65.8870968 6.20967742 62.2580645 6.20967742 57.5806452 18.8709677 61.3709677 18.8709677 64.0322581 10.8064516 64.1129032 10.8064516"></polygon>
                    </g>
                </g>
                <path d="M120.094,13.579 L117,18.389 L119.145,18.389 L120.601,16.114 C120.822,15.776 120.991,15.451 121.121,15.139 L121.199,15.139 L121.719,16.101 L123.175,18.389 L125.32,18.389 L122.226,13.566 L125.073,9.133 L122.915,9.133 L121.719,11.031 C121.576,11.265 121.407,11.59 121.212,11.993 L121.121,11.993 C121.004,11.694 120.822,11.356 120.601,11.005 L119.405,9.133 L117.247,9.133 L120.094,13.579 Z M130.814667,8.977 C129.514667,8.977 128.409667,9.445 127.499667,10.381 C126.589667,11.304 126.134667,12.435 126.134667,13.761 C126.134667,15.087 126.589667,16.218 127.499667,17.141 C128.409667,18.064 129.514667,18.532 130.814667,18.532 C132.127667,18.532 133.232667,18.077 134.142667,17.154 C135.052667,16.231 135.507667,15.1 135.507667,13.761 C135.507667,12.422 135.052667,11.291 134.142667,10.368 C133.232667,9.445 132.127667,8.977 130.814667,8.977 L130.814667,8.977 Z M130.814667,10.732 C131.659667,10.732 132.348667,11.031 132.881667,11.616 C133.414667,12.201 133.687667,12.916 133.687667,13.761 C133.687667,14.606 133.414667,15.321 132.881667,15.906 C132.348667,16.491 131.659667,16.777 130.814667,16.777 C129.969667,16.777 129.280667,16.491 128.747667,15.906 C128.214667,15.321 127.941667,14.606 127.941667,13.761 C127.941667,12.916 128.214667,12.201 128.747667,11.616 C129.293667,11.031 129.982667,10.732 130.814667,10.732 L130.814667,10.732 Z M139.312333,15.373 C139.312333,15.048 139.299333,14.658 139.286333,14.437 L139.351333,14.437 C139.585333,14.801 139.780333,15.074 139.949333,15.256 L142.432333,18.389 L144.746333,18.389 L140.833333,13.514 L144.564333,9.133 L142.289333,9.133 L139.949333,11.941 C139.780333,12.123 139.585333,12.396 139.351333,12.76 L139.286333,12.76 C139.299333,12.539 139.312333,12.253 139.312333,11.928 L139.312333,9.133 L137.544333,9.133 L137.544333,18.389 L139.312333,18.389 L139.312333,15.373 Z M148.174,15.373 C148.174,15.048 148.161,14.658 148.148,14.437 L148.213,14.437 C148.447,14.801 148.642,15.074 148.811,15.256 L151.294,18.389 L153.608,18.389 L149.695,13.514 L153.426,9.133 L151.151,9.133 L148.811,11.941 C148.642,12.123 148.447,12.396 148.213,12.76 L148.148,12.76 C148.161,12.539 148.174,12.253 148.174,11.928 L148.174,9.133 L146.406,9.133 L146.406,18.389 L148.174,18.389 L148.174,15.373 Z M160.740667,18.389 L160.740667,16.647 L157.048667,16.647 L157.048667,14.398 L160.636667,14.398 L160.636667,12.656 L157.048667,12.656 L157.048667,10.862 L160.740667,10.862 L160.740667,9.133 L155.267667,9.133 L155.267667,18.389 L160.740667,18.389 Z M164.285333,18.389 L167.756333,13.657 C168.029333,13.28 168.302333,12.877 168.562333,12.422 L168.640333,12.422 C168.601333,13.241 168.575333,13.657 168.575333,13.67 L168.575333,18.389 L170.356333,18.389 L170.356333,9.133 L168.913333,9.133 L165.624333,13.657 C165.286333,14.138 165.013333,14.554 164.818333,14.905 L164.740333,14.905 C164.792333,14.411 164.818333,13.995 164.818333,13.657 L164.818333,9.133 L163.024333,9.133 L163.024333,18.389 L164.285333,18.389 Z M168.055333,6 C167.600333,6.897 167.158333,7.014 166.651333,7.001 C166.274333,7.001 166.066333,6.975 165.715333,6.663 C165.546333,6.507 165.390333,6.286 165.260333,6 L164.272333,6.468 C164.792333,7.625 165.715333,8.106 166.651333,8.106 C167.587333,8.106 168.510333,7.625 169.030333,6.468 L168.055333,6 Z" id="ХОККЕЙ"></path>
            </g>
        </g>
    </g>
</svg>